{
  "http": {
    "routePrefix": "api",
    "maxOutstandingRequests": 20,
    "maxConcurrentRequests": 10,
    "dynamicThrottlesEnabled": false
  },
  "logger": {
    "categoryFilter": {
      "defaultLevel": "Information",
      "categoryLevels": {
        "Host.Executor": "Warning",
        "Host.Aggregator": "None"
      }
    }
  },
  "applicationInsights": {
    "sampling": {
      "isEnabled": false
    }
  }
}