﻿{
  "disabled": false,
  "scriptFile": "..\\bin\\JB2.Healthcheck.dll",
  "entryPoint": "JB2.Healthcheck.DriveEventhubReceiver.Run",
  "bindings": [
    {
      "name": "healthCheckContainer",
      "type": "blob",
      "direction": "in",
      "path": "healthcheck",
      "connection": "PrivateStorageAccount"
    },
    {
      "type": "eventHubTrigger",
      "name": "eventHubMsg",
      "direction": "in",
      "path": "drive",
      "connection": "ScomEventHubConnStr",
      "consumerGroup": "healthcheck"
    }
  ]
}