﻿{
  "disabled": false,
  "scriptFile": "..\\bin\\JB2.API.dll",
  "entryPoint": "JB2.API.Fcw.Run",
  "bindings": [
    {
      "authLevel": "anonymous",
      "name": "req",
      "type": "httpTrigger",
      "direction": "in",
      "route": "devices/{deviceId}/fcw",
      "methods": [
        "get",
        "put"
      ]
    },
    {
      "name": "$return",
      "type": "http",
      "direction": "out"
    },
    {
      "type": "table",
      "name": "outDeviceInfo",
      "tableName": "DeviceInfo",
      "connection": "PrivateStorageAccount",
      "direction": "out"
    },
    {
      "type": "table",
      "name": "outSettingInfo",
      "tableName": "SettingInfo",
      "connection": "PrivateStorageAccount",
      "direction": "out"
    },
    {
      "type": "table",
      "name": "inLatestInfo",
      "tableName": "LatestInfo",
      "connection": "PrivateStorageAccount",
      "direction": "in"
    },
    {
      "name": "deviceNotificationQueueItems",
      "type": "queue",
      "direction": "out",
      "queueName": "device-notification",
      "connection": "PrivateStorageAccount"
    }
  ]
}