﻿{
  "disabled": false,
  "scriptFile": "..\\bin\\JB2.Healthcheck.dll",
  "entryPoint": "JB2.Healthcheck.HealthCheckStarting.Run",
  "bindings": [
    {
      "authLevel": "function",
      "name": "req",
      "type": "httpTrigger",
      "direction": "in",
      "route": "starting",
      "methods": [
        "get"
      ]
    },
    {
      "name": "$return",
      "type": "http",
      "direction": "out"
    }
  ]
}
